3 Análisis Gap – Análisis carreras 1500m
…
# 5) Gap en tiempo y conversión a metros (aprox)
gap_ts <- long %>%
  left_join(leader_cum, by = "dist_m") %>%
  left_join(leader_speed, by = "dist_m") %>%
  mutate(
    gap_time_sec = cum_time - leader_cum_time,
    gap_m = gap_time_sec * v_leader
  ) %>%
  select(Competitor, dist_m, split_time, cum_time, gap_time_sec, gap_m) %>%
  arrange(Competitor, dist_m)

gap_ts

# A tibble: 180 × 6
   Competitor       dist_m split_time cum_time gap_time_sec gap_m
   <chr>             <int>      <dbl>    <dbl>        <dbl> <dbl>
 1 Agathe Guillemot    100       14.8     14.8        0.400  2.78
 2 Agathe Guillemot    200       15.2     30          1.2    8.33
 3 Agathe Guillemot    300       15.2     45.2        1.30   8.84
 4 Agathe Guillemot    400       15.4     60.6        1.30   8.44
 5 Agathe Guillemot    500       15.8     76.4        1.5    9.80
 6 Agathe Guillemot    600       16       92.4        1.60  10.2 
 7 Agathe Guillemot    700       16.4    109.         1.70  10.6 
 8 Agathe Guillemot    800       16.2    125          1.70  10.5 
 9 Agathe Guillemot    900       16.5    142.         2.10  13.4 
10 Agathe Guillemot   1000       16.1    158.         1.90  12.1 
# ℹ 170 more rows
…
